{
  "configVersion": 2,
  "packages": [
    {
      "name": "_flutterfire_internals",
      "rootUri": "file:///C:/Users/HP/Downloads/flutter/.pub-cache/hosted/pub.dartlang.org/_flutterfire_internals-1.0.9",
      "packageUri": "lib/",
      "languageVersion": "2.16"
    },
    {
      "name": "async",
      "rootUri": "file:///C:/Users/HP/Downloads/flutter/.pub-cache/hosted/pub.dartlang.org/async-2.8.2",
      "packageUri": "lib/",
      "languageVersion": "2.12"
    },
    {
      "name": "boolean_selector",
      "rootUri": "file:///C:/Users/HP/Downloads/flutter/.pub-cache/hosted/pub.dartlang.org/boolean_selector-2.1.0",
      "packageUri": "lib/",
      "languageVersion": "2.12"
    },
    {
      "name": "characters",
      "rootUri": "file:///C:/Users/HP/Downloads/flutter/.pub-cache/hosted/pub.dartlang.org/characters-1.2.0",
      "packageUri": "lib/",
      "languageVersion": "2.12"
    },
    {
      "name": "charcode",
      "rootUri": "file:///C:/Users/HP/Downloads/flutter/.pub-cache/hosted/pub.dartlang.org/charcode-1.3.1",
      "packageUri": "lib/",
      "languageVersion": "2.12"
    },
    {
      "name": "clock",
      "rootUri": "file:///C:/Users/HP/Downloads/flutter/.pub-cache/hosted/pub.dartlang.org/clock-1.1.0",
      "packageUri": "lib/",
      "languageVersion": "2.12"
    },
    {
      "name": "cloud_firestore",
      "rootUri": "file:///C:/Users/HP/Downloads/flutter/.pub-cache/hosted/pub.dartlang.org/cloud_firestore-4.1.0",
      "packageUri": "lib/",
      "languageVersion": "2.16"
    },
    {
      "name": "cloud_firestore_platform_interface",
      "rootUri": "file:///C:/Users/HP/Downloads/flutter/.pub-cache/hosted/pub.dartlang.org/cloud_firestore_platform_interface-5.9.0",
      "packageUri": "lib/",
      "languageVersion": "2.16"
    },
    {
      "name": "cloud_firestore_web",
      "rootUri": "file:///C:/Users/HP/Downloads/flutter/.pub-cache/hosted/pub.dartlang.org/cloud_firestore_web-3.1.0",
      "packageUri": "lib/",
      "languageVersion": "2.16"
    },
    {
      "name": "collection",
      "rootUri": "file:///C:/Users/HP/Downloads/flutter/.pub-cache/hosted/pub.dartlang.org/collection-1.16.0",
      "packageUri": "lib/",
      "languageVersion": "2.12"
    },
    {
      "name": "csslib",
      "rootUri": "file:///C:/Users/HP/Downloads/flutter/.pub-cache/hosted/pub.dartlang.org/csslib-0.17.2",
      "packageUri": "lib/",
      "languageVersion": "2.12"
    },
    {
      "name": "cupertino_icons",
      "rootUri": "file:///C:/Users/HP/Downloads/flutter/.pub-cache/hosted/pub.dartlang.org/cupertino_icons-1.0.5",
      "packageUri": "lib/",
      "languageVersion": "2.12"
    },
    {
      "name": "fake_async",
      "rootUri": "file:///C:/Users/HP/Downloads/flutter/.pub-cache/hosted/pub.dartlang.org/fake_async-1.3.0",
      "packageUri": "lib/",
      "languageVersion": "2.12"
    },
    {
      "name": "ffi",
      "rootUri": "file:///C:/Users/HP/Downloads/flutter/.pub-cache/hosted/pub.dartlang.org/ffi-2.0.1",
      "packageUri": "lib/",
      "languageVersion": "2.17"
    },
    {
      "name": "file",
      "rootUri": "file:///C:/Users/HP/Downloads/flutter/.pub-cache/hosted/pub.dartlang.org/file-6.1.4",
      "packageUri": "lib/",
      "languageVersion": "2.12"
    },
    {
      "name": "firebase_auth",
      "rootUri": "file:///C:/Users/HP/Downloads/flutter/.pub-cache/hosted/pub.dartlang.org/firebase_auth-4.1.2",
      "packageUri": "lib/",
      "languageVersion": "2.16"
    },
    {
      "name": "firebase_auth_platform_interface",
      "rootUri": "file:///C:/Users/HP/Downloads/flutter/.pub-cache/hosted/pub.dartlang.org/firebase_auth_platform_interface-6.11.2",
      "packageUri": "lib/",
      "languageVersion": "2.16"
    },
    {
      "name": "firebase_auth_web",
      "rootUri": "file:///C:/Users/HP/Downloads/flutter/.pub-cache/hosted/pub.dartlang.org/firebase_auth_web-5.1.2",
      "packageUri": "lib/",
      "languageVersion": "2.16"
    },
    {
      "name": "firebase_core",
      "rootUri": "file:///C:/Users/HP/Downloads/flutter/.pub-cache/hosted/pub.dartlang.org/firebase_core-2.3.0",
      "packageUri": "lib/",
      "languageVersion": "2.16"
    },
    {
      "name": "firebase_core_platform_interface",
      "rootUri": "file:///C:/Users/HP/Downloads/flutter/.pub-cache/hosted/pub.dartlang.org/firebase_core_platform_interface-4.5.2",
      "packageUri": "lib/",
      "languageVersion": "2.16"
    },
    {
      "name": "firebase_core_web",
      "rootUri": "file:///C:/Users/HP/Downloads/flutter/.pub-cache/hosted/pub.dartlang.org/firebase_core_web-2.0.1",
      "packageUri": "lib/",
      "languageVersion": "2.16"
    },
    {
      "name": "flutter",
      "rootUri": "file:///C:/Users/HP/Downloads/flutter/packages/flutter",
      "packageUri": "lib/",
      "languageVersion": "2.12"
    },
    {
      "name": "flutter_lints",
      "rootUri": "file:///C:/Users/HP/Downloads/flutter/.pub-cache/hosted/pub.dartlang.org/flutter_lints-2.0.1",
      "packageUri": "lib/",
      "languageVersion": "2.17"
    },
    {
      "name": "flutter_test",
      "rootUri": "file:///C:/Users/HP/Downloads/flutter/packages/flutter_test",
      "packageUri": "lib/",
      "languageVersion": "2.17"
    },
    {
      "name": "flutter_web_plugins",
      "rootUri": "file:///C:/Users/HP/Downloads/flutter/packages/flutter_web_plugins",
      "packageUri": "lib/",
      "languageVersion": "2.17"
    },
    {
      "name": "html",
      "rootUri": "file:///C:/Users/HP/Downloads/flutter/.pub-cache/hosted/pub.dartlang.org/html-0.15.1",
      "packageUri": "lib/",
      "languageVersion": "2.12"
    },
    {
      "name": "http",
      "rootUri": "file:///C:/Users/HP/Downloads/flutter/.pub-cache/hosted/pub.dartlang.org/http-0.13.5",
      "packageUri": "lib/",
      "languageVersion": "2.14"
    },
    {
      "name": "http_parser",
      "rootUri": "file:///C:/Users/HP/Downloads/flutter/.pub-cache/hosted/pub.dartlang.org/http_parser-4.0.2",
      "packageUri": "lib/",
      "languageVersion": "2.12"
    },
    {
      "name": "intl",
      "rootUri": "file:///C:/Users/HP/Downloads/flutter/.pub-cache/hosted/pub.dartlang.org/intl-0.17.0",
      "packageUri": "lib/",
      "languageVersion": "2.12"
    },
    {
      "name": "js",
      "rootUri": "file:///C:/Users/HP/Downloads/flutter/.pub-cache/hosted/pub.dartlang.org/js-0.6.4",
      "packageUri": "lib/",
      "languageVersion": "2.16"
    },
    {
      "name": "lints",
      "rootUri": "file:///C:/Users/HP/Downloads/flutter/.pub-cache/hosted/pub.dartlang.org/lints-2.0.1",
      "packageUri": "lib/",
      "languageVersion": "2.17"
    },
    {
      "name": "matcher",
      "rootUri": "file:///C:/Users/HP/Downloads/flutter/.pub-cache/hosted/pub.dartlang.org/matcher-0.12.11",
      "packageUri": "lib/",
      "languageVersion": "2.12"
    },
    {
      "name": "material_color_utilities",
      "rootUri": "file:///C:/Users/HP/Downloads/flutter/.pub-cache/hosted/pub.dartlang.org/material_color_utilities-0.1.4",
      "packageUri": "lib/",
      "languageVersion": "2.13"
    },
    {
      "name": "meta",
      "rootUri": "file:///C:/Users/HP/Downloads/flutter/.pub-cache/hosted/pub.dartlang.org/meta-1.7.0",
      "packageUri": "lib/",
      "languageVersion": "2.12"
    },
    {
      "name": "path",
      "rootUri": "file:///C:/Users/HP/Downloads/flutter/.pub-cache/hosted/pub.dartlang.org/path-1.8.1",
      "packageUri": "lib/",
      "languageVersion": "2.12"
    },
    {
      "name": "path_provider_linux",
      "rootUri": "file:///C:/Users/HP/Downloads/flutter/.pub-cache/hosted/pub.dartlang.org/path_provider_linux-2.1.7",
      "packageUri": "lib/",
      "languageVersion": "2.12"
    },
    {
      "name": "path_provider_platform_interface",
      "rootUri": "file:///C:/Users/HP/Downloads/flutter/.pub-cache/hosted/pub.dartlang.org/path_provider_platform_interface-2.0.5",
      "packageUri": "lib/",
      "languageVersion": "2.12"
    },
    {
      "name": "path_provider_windows",
      "rootUri": "file:///C:/Users/HP/Downloads/flutter/.pub-cache/hosted/pub.dartlang.org/path_provider_windows-2.1.3",
      "packageUri": "lib/",
      "languageVersion": "2.17"
    },
    {
      "name": "platform",
      "rootUri": "file:///C:/Users/HP/Downloads/flutter/.pub-cache/hosted/pub.dartlang.org/platform-3.1.0",
      "packageUri": "lib/",
      "languageVersion": "2.12"
    },
    {
      "name": "plugin_platform_interface",
      "rootUri": "file:///C:/Users/HP/Downloads/flutter/.pub-cache/hosted/pub.dartlang.org/plugin_platform_interface-2.1.3",
      "packageUri": "lib/",
      "languageVersion": "2.12"
    },
    {
      "name": "process",
      "rootUri": "file:///C:/Users/HP/Downloads/flutter/.pub-cache/hosted/pub.dartlang.org/process-4.2.4",
      "packageUri": "lib/",
      "languageVersion": "2.14"
    },
    {
      "name": "shared_preferences",
      "rootUri": "file:///C:/Users/HP/Downloads/flutter/.pub-cache/hosted/pub.dartlang.org/shared_preferences-2.0.15",
      "packageUri": "lib/",
      "languageVersion": "2.14"
    },
    {
      "name": "shared_preferences_android",
      "rootUri": "file:///C:/Users/HP/Downloads/flutter/.pub-cache/hosted/pub.dartlang.org/shared_preferences_android-2.0.14",
      "packageUri": "lib/",
      "languageVersion": "2.14"
    },
    {
      "name": "shared_preferences_ios",
      "rootUri": "file:///C:/Users/HP/Downloads/flutter/.pub-cache/hosted/pub.dartlang.org/shared_preferences_ios-2.1.1",
      "packageUri": "lib/",
      "languageVersion": "2.14"
    },
    {
      "name": "shared_preferences_linux",
      "rootUri": "file:///C:/Users/HP/Downloads/flutter/.pub-cache/hosted/pub.dartlang.org/shared_preferences_linux-2.1.1",
      "packageUri": "lib/",
      "languageVersion": "2.12"
    },
    {
      "name": "shared_preferences_macos",
      "rootUri": "file:///C:/Users/HP/Downloads/flutter/.pub-cache/hosted/pub.dartlang.org/shared_preferences_macos-2.0.4",
      "packageUri": "lib/",
      "languageVersion": "2.12"
    },
    {
      "name": "shared_preferences_platform_interface",
      "rootUri": "file:///C:/Users/HP/Downloads/flutter/.pub-cache/hosted/pub.dartlang.org/shared_preferences_platform_interface-2.1.0",
      "packageUri": "lib/",
      "languageVersion": "2.12"
    },
    {
      "name": "shared_preferences_web",
      "rootUri": "file:///C:/Users/HP/Downloads/flutter/.pub-cache/hosted/pub.dartlang.org/shared_preferences_web-2.0.4",
      "packageUri": "lib/",
      "languageVersion": "2.12"
    },
    {
      "name": "shared_preferences_windows",
      "rootUri": "file:///C:/Users/HP/Downloads/flutter/.pub-cache/hosted/pub.dartlang.org/shared_preferences_windows-2.1.1",
      "packageUri": "lib/",
      "languageVersion": "2.12"
    },
    {
      "name": "sky_engine",
      "rootUri": "file:///C:/Users/HP/Downloads/flutter/bin/cache/pkg/sky_engine",
      "packageUri": "lib/",
      "languageVersion": "2.12"
    },
    {
      "name": "source_span",
      "rootUri": "file:///C:/Users/HP/Downloads/flutter/.pub-cache/hosted/pub.dartlang.org/source_span-1.8.2",
      "packageUri": "lib/",
      "languageVersion": "2.14"
    },
    {
      "name": "stack_trace",
      "rootUri": "file:///C:/Users/HP/Downloads/flutter/.pub-cache/hosted/pub.dartlang.org/stack_trace-1.10.0",
      "packageUri": "lib/",
      "languageVersion": "2.12"
    },
    {
      "name": "stream_channel",
      "rootUri": "file:///C:/Users/HP/Downloads/flutter/.pub-cache/hosted/pub.dartlang.org/stream_channel-2.1.0",
      "packageUri": "lib/",
      "languageVersion": "2.12"
    },
    {
      "name": "string_scanner",
      "rootUri": "file:///C:/Users/HP/Downloads/flutter/.pub-cache/hosted/pub.dartlang.org/string_scanner-1.1.0",
      "packageUri": "lib/",
      "languageVersion": "2.12"
    },
    {
      "name": "term_glyph",
      "rootUri": "file:///C:/Users/HP/Downloads/flutter/.pub-cache/hosted/pub.dartlang.org/term_glyph-1.2.0",
      "packageUri": "lib/",
      "languageVersion": "2.12"
    },
    {
      "name": "test_api",
      "rootUri": "file:///C:/Users/HP/Downloads/flutter/.pub-cache/hosted/pub.dartlang.org/test_api-0.4.9",
      "packageUri": "lib/",
      "languageVersion": "2.12"
    },
    {
      "name": "typed_data",
      "rootUri": "file:///C:/Users/HP/Downloads/flutter/.pub-cache/hosted/pub.dartlang.org/typed_data-1.3.1",
      "packageUri": "lib/",
      "languageVersion": "2.12"
    },
    {
      "name": "vector_math",
      "rootUri": "file:///C:/Users/HP/Downloads/flutter/.pub-cache/hosted/pub.dartlang.org/vector_math-2.1.2",
      "packageUri": "lib/",
      "languageVersion": "2.14"
    },
    {
      "name": "video_player",
      "rootUri": "file:///C:/Users/HP/Downloads/flutter/.pub-cache/hosted/pub.dartlang.org/video_player-2.4.8",
      "packageUri": "lib/",
      "languageVersion": "2.14"
    },
    {
      "name": "video_player_android",
      "rootUri": "file:///C:/Users/HP/Downloads/flutter/.pub-cache/hosted/pub.dartlang.org/video_player_android-2.3.9",
      "packageUri": "lib/",
      "languageVersion": "2.14"
    },
    {
      "name": "video_player_avfoundation",
      "rootUri": "file:///C:/Users/HP/Downloads/flutter/.pub-cache/hosted/pub.dartlang.org/video_player_avfoundation-2.3.7",
      "packageUri": "lib/",
      "languageVersion": "2.14"
    },
    {
      "name": "video_player_platform_interface",
      "rootUri": "file:///C:/Users/HP/Downloads/flutter/.pub-cache/hosted/pub.dartlang.org/video_player_platform_interface-5.1.4",
      "packageUri": "lib/",
      "languageVersion": "2.12"
    },
    {
      "name": "video_player_web",
      "rootUri": "file:///C:/Users/HP/Downloads/flutter/.pub-cache/hosted/pub.dartlang.org/video_player_web-2.0.12",
      "packageUri": "lib/",
      "languageVersion": "2.12"
    },
    {
      "name": "win32",
      "rootUri": "file:///C:/Users/HP/Downloads/flutter/.pub-cache/hosted/pub.dartlang.org/win32-3.1.2",
      "packageUri": "lib/",
      "languageVersion": "2.17"
    },
    {
      "name": "xdg_directories",
      "rootUri": "file:///C:/Users/HP/Downloads/flutter/.pub-cache/hosted/pub.dartlang.org/xdg_directories-0.2.0+2",
      "packageUri": "lib/",
      "languageVersion": "2.12"
    },
    {
      "name": "tugasakhir",
      "rootUri": "../",
      "packageUri": "lib/",
      "languageVersion": "2.17"
    }
  ],
  "generated": "2022-12-01T11:30:50.206478Z",
  "generator": "pub",
  "generatorVersion": "2.17.6"
}
